﻿
<a target="_self" href="http://en.wikipedia.org/wiki/Douglas_Bliss" rel="nofollow"></a>
<h5><a target="_self" href="http://en.wikipedia.org/wiki/Douglas_Bliss" rel="nofollow"><b>5)  Дуглас Перси Блисс</b></a>  </h5>

<b>Деревянные гравюры, 1934 год</b><br><br><br>
<a target="_self" href="http://farm9.staticflickr.com/8239/8581977680_a1d3e69114_b.jpg" rel="nofollow"><img src="http://farm9.staticflickr.com/8239/8581977680_a1d3e69114_z.jpg" alt="Untitled" height="375" width="640"></a>
<br><br><br><br><br>

<a target="_self" href="http://farm9.staticflickr.com/8512/8530573709_207c479c6c_b.jpg" rel="nofollow"><img src="http://farm9.staticflickr.com/8512/8530573709_207c479c6c_z.jpg" alt="p1" height="383" width="640"></a>
<br><br><br><br><br>

<a target="_self" href="http://farm9.staticflickr.com/8236/8530573161_d56fc6f0fa_b.jpg" rel="nofollow"><img src="http://farm9.staticflickr.com/8236/8530573161_d56fc6f0fa_z.jpg" alt="p2" height="241" width="640"></a>
<br><br><br><br><br>

<a target="_self" href="http://farm9.staticflickr.com/8239/8530572835_bb137104ef_b.jpg" rel="nofollow"><img src="http://farm9.staticflickr.com/8239/8530572835_bb137104ef_z.jpg" alt="p3" height="329" width="640"></a>
<br><br><br><br><br>

<a target="_self" href="http://farm9.staticflickr.com/8249/8531684784_5ffac6a13a_b.jpg" rel="nofollow"><img src="http://farm9.staticflickr.com/8249/8531684784_5ffac6a13a_z.jpg" alt="p5" height="372" width="640"></a>
<br><br><br><br>

<a target="_self" href="http://farm9.staticflickr.com/8087/8580875929_abaf3a6427_b.jpg" rel="nofollow"><img src="http://farm9.staticflickr.com/8087/8580875929_abaf3a6427_z.jpg" alt="Untitled" height="369" width="640"></a>
<br><br><br><br>

<a target="_self" href="http://farm9.staticflickr.com/8374/8530571927_b22be851e4_b.jpg" rel="nofollow"><img src="http://farm9.staticflickr.com/8374/8530571927_b22be851e4_z.jpg" alt="p6" height="425" width="640"></a>
<br>