﻿<img src="http://farm8.staticflickr.com/7237/7160948695_dd97066164_n.jpg" width="320" >
<br/>



          
              
В 1998 году книга "Старая леди, которая проглотила муху" с иллюстрациями Симмсa Табакa получила  премию "Caldecott Honor Book".  
<br/><br/>
